{
    "license": "MIT",
    "native": false,
    "requirements": [],
    "source": "https://gitlab.com/FascinatedBox/lily-spawni",
    "summary": "Spawn and control a Lily interpreter.",
    "version": "v1.2.0"
}
